[Event "Chessmaster: Grandmaster Edition Rated Game"]
[Site ""]
[Date "2020.1.31"]
[Round ""]
[White "Mark"]
[Black "tg"]
[TimeControl "2100"]
[Result "0-1"]
[ECO " "]

1.e4 e5 2.Nf3 Nf6 3.d4 Nxe4 4.c3 exd4 5.Qxd4 d5 6.Be3 a6 7.Be2 Nc6 8.Qa4 Bc5 9.Nd4 Bxd4 10.cxd4 O-O 11.Na3 Re8 12.O-O Nxf2 
13.Rxf2 Rxe3 14.Bh5 g6 15.Bf3 Bf5 16.Raf1 Rd3 17.Be2 Rxd4 18.Qb3 Rb4 19.Qc3 Qd6 20.Nc2 d4 21.Qf3 Ne5 22.Qg3 Bxc2 23.Rf6 Qc5 
24.Qf2 Rxb2 25.Rxf7 Bf5 26.Rxf5 gxf5 27.Qxf5 d3+ 28.Kh1 Qd6 29.Bd1 Kg7 30.Qe4 Rb1 31.h3 Rf8 32.Rg1 Rf2 33.Qe3 Rxa2 34.Rf1 d2 
35.Qg3+ Ng6 36.Qc3+ Qe5 37.Qd3 Rc1 38.Qd7+ Kh6 39.Qd3 Qe1 40.Qf3 Raa1 41.Qh5+ Kg7 42.Qf3 Qxf1+ 43.Qxf1 Rxd1 44.Qxd1 Rxd1+ 45.Kh2
Ra1 46.h4 h5 47.g4 d1=Q 48.Kg3 hxg4 49.h5 Qg1# 0-1

